[
  {
    "id": "18b1d34676b16a0bd",
    "archived": false,
    "name": "pantalon",
    "brand": "nike",
    "price": 9999,
    "category": "mas matibay"
  },
  {
    "id": "18b1d34676b16a0bd",
    "archived": false,
    "name": "pantalon",
    "brand": "nike",
    "price": 900000,
    "category": "mas matibay"
  },
  {
    "id": "18b1d34676b16a0bd",
    "archived": false,
    "name": "DUSTER",
    "brand": "nike",
    "price": 9,
    "category": "mas matibay"
  },
  {
    "id": "18b1d7078c33d7828",
    "archived": false,
    "name": "WIPCAPS",
    "brand": "FUBU",
    "price": 8000,
    "category": "FASHION"
  }
]